{
  "src/slim/test_vars.slim": {
    "title": "Just a title!"
  },
  "src/slim/intro.slim": {
    "author": "Mat",
    "year": 2016,
    "items": [
      { "name": "First", "price": 12.3 },
      { "name": "Second", "price": 45.6 },
      { "name": "Third", "price": 78.9 }
    ]
  }
}
